…
## Create categories

The `count()` function creates a new column named n. The `case_when()`
function is used to categorize the data based on conditions.

``` r
char_df %>% count(character) %>% mutate(occurances = case_when(
  n <= 5 ~ "few",
  n > 5 ~ "many",
  .default = NA))
```

    ## # A tibble: 24 × 3
    ##    character     n occurances
    ##    <fct>     <int> <chr>     
    ##  1 A             3 few       
    ##  2 B             7 many      
    ##  3 C             4 few       
    ##  4 D             2 few       
    ##  5 G             7 many      
    ##  6 H             2 few       
    ##  7 I             1 few       
    ##  8 J             4 few       
    ##  9 K            11 many      
    ## 10 L             4 few       
    ## # ℹ 14 more rows
…
